{"success":true,"data":{"result":[{"link":"https://www.loom.fr/collections/tous-les-vetements/products/le-hoodie","brand":"loom",
    "price":90,"name":"Le hoodie","photo":"//cdn.shopify.com/s/files/1/1355/7899/products/loom_hoodie_durable_bleu_face_394x.jpg?v=1591698418","uuid":"084a85ed-bb99-5cb8-9170-d032480455bf",
    "released":"2020-03-16"},{"link":"https://coteleparis.com/collections/tous-les-produits-cotele/products/la-baseball-cap-camel",
        "brand":"coteleparis","price":45,"name":"BASEBALL CAP - CAMEL",
        "photo":"//cdn.shopify.com/s/files/1/0479/7798/8261/products/IMG_5111_600x.jpg?v=1606912077",
        "uuid":"5b036585-36f1-56a3-b87c-7660082045d4","released":"2020-12-21"},
        {"link":"https://www.loom.fr/collections/tous-les-vetements/products/la-chemise-vichy","brand":"loom","price":50,
            "name":"La chemise vichy","photo":"//cdn.shopify.com/s/files/1/1355/7899/products/loom_chemise_vichy_coton_rouge_face_1_394x.jpg?v=1605263024",
            "uuid":"8a469325-fbac-50ec-9e0c-d26e1ee79c00","released":"2020-10-19"},
            {"link":"https://adresse.paris/vestes/4243-belleville-laine-laminee-1300000263689.html#/79-taille_fastmag-m","brand":"adresse",
                "price":269,"name":"Teddy Belleville en laine laminée - Vert","photo":"https://adresse.paris/30329-home_default/belleville-laine-laminee.jpg",
                "uuid":"fc88417d-61c5-5fdd-bff3-b560b8702c6e","released":"2020-11-17"},
                {"link":"https://adresse.paris/pulls-sweatshirts/4237-saint-victor-merinos-1300000262323.html#/79-taille_fastmag-m","brand":"adresse","price":110,"name":"Pull Saint-Victor Caramel 100% mérinos","photo":"https://adresse.paris/30207-home_default/saint-victor-merinos.jpg","uuid":"381aedfb-0089-54e5-add5-d91752aa4227","released":"2020-03-16"},{"link":"https://www.loom.fr/collections/tous-les-vetements/products/le-boxer","brand":"loom","price":18,"name":"Le boxer","photo":"//cdn.shopify.com/s/files/1/1355/7899/products/boxercotonbioloombleu_394x.jpg?v=1600680304","uuid":"141a4b41-9295-51f4-a7e5-1d827649c55e","released":"2020-12-21"},{"link":"https://adresse.paris/vestes/4255-sorbonne-laine-laminee-1300000263801.html#/79-taille_fastmag-m","brand":"adresse","price":299,"name":"Sorbonne laine laminée vert","photo":"https://adresse.paris/30401-home_default/sorbonne-laine-laminee.jpg","uuid":"dbfbda1a-29a6-502a-98e1-d6863a53b055","released":"2020-03-16"},
                {"link":"https://www.loom.fr/collections/tous-les-vetements/products/le-sweat","brand":"loom","price":60,"name":"Le sweat","photo":"//cdn.shopify.com/s/files/1/1355/7899/products/loom_sweat_coton_gris_chine_face_394x.jpg?v=1583227363","uuid":"a4e92de6-8729-5da2-a53d-8faf424c02dd","released":"2020-03-16"},
                {"link":"https://www.loom.fr/collections/tous-les-vetements/products/le-t-shirt","brand":"loom","price":20,"name":"Le t-shirt","photo":"//cdn.shopify.com/s/files/1/1355/7899/products/loom_tshirt_coton_noir_face_394x.jpg?v=1600161189","uuid":"fe6cc028-a146-5eab-9878-27be5164e436","released":"2021-01-18"},
                {"link":"https://adresse.paris/chemises/4242-sur-chemise-roquette-1300000265713.html#/79-taille_fastmag-m","brand":"adresse","price":99,"name":"Sur-chemise Roquette","photo":"https://adresse.paris/30203-home_default/sur-chemise-roquette.jpg","uuid":"9bff4794-3217-5495-b0ec-9cc4783e6784","released":"2020-03-16"},
                {"link":"https://www.loom.fr/collections/tous-les-vetements/products/le-polo","brand":"loom","price":45,"name":"Le polo","photo":"//cdn.shopify.com/s/files/1/1355/7899/products/polo_bleu_face_2_1_394x.jpg?v=1596545655","uuid":"605ed975-a69d-5e42-bdf1-fd6e569c0e6f","released":"2021-01-18"},{"link":"https://www.loom.fr/collections/tous-les-vetements/products/le-pull-col-roule","brand":"loom","price":75,"name":"Le pull col roulé","photo":"//cdn.shopify.com/s/files/1/1355/7899/products/pullcolroulelainebiobleuloom2_394x.jpg?v=1609841699","uuid":"a07d1cbb-9d65-5a34-bf4a-983edcfc4fa4","released":"2020-11-17"}],
"meta":{"currentPage":1,"pageCount":12,"pageSize":12,"count":139}}}